%YAML 1.1
%TAG !u! tag:unity3d.com,2011:
--- !u!74 &7400000
AnimationClip:
  m_ObjectHideFlags: 0
  m_CorrespondingSourceObject: {fileID: 0}
  m_PrefabInstance: {fileID: 0}
  m_PrefabAsset: {fileID: 0}
  m_Name: DemonioVolando
  serializedVersion: 6
  m_Legacy: 0
  m_Compressed: 0
  m_UseHighQualityCurve: 1
  m_RotationCurves: []
  m_CompressedRotationCurves: []
  m_EulerCurves: []
  m_PositionCurves: []
  m_ScaleCurves: []
  m_FloatCurves: []
  m_PPtrCurves:
  - curve:
    - time: 0
      value: {fileID: 21300000, guid: c2f55c753bd202d43907ed6b157343f9, type: 3}
    - time: 0.1
      value: {fileID: 21300000, guid: 34b51a8227eb8ee44b282a9de46f4cb3, type: 3}
    - time: 0.2
      value: {fileID: 21300000, guid: 13c5459a013c138448a4a3a9dfbb9653, type: 3}
    - time: 0.3
      value: {fileID: 21300000, guid: 59d98d70a7512e34da306b790a2b7784, type: 3}
    - time: 0.4
      value: {fileID: 21300000, guid: e0cb4f1d0fa9d2c43ba2d817c35c8db2, type: 3}
    - time: 0.5
      value: {fileID: 21300000, guid: f691d0256a0b9c74b9a34c416d39f64d, type: 3}
    attribute: m_Sprite
    path: 
    classID: 212
    script: {fileID: 0}
  m_SampleRate: 10
  m_WrapMode: 0
  m_Bounds:
    m_Center: {x: 0, y: 0, z: 0}
    m_Extent: {x: 0, y: 0, z: 0}
  m_ClipBindingConstant:
    genericBindings:
    - serializedVersion: 2
      path: 0
      attribute: 0
      script: {fileID: 0}
      typeID: 212
      customType: 23
      isPPtrCurve: 1
    pptrCurveMapping:
    - {fileID: 21300000, guid: c2f55c753bd202d43907ed6b157343f9, type: 3}
    - {fileID: 21300000, guid: 34b51a8227eb8ee44b282a9de46f4cb3, type: 3}
    - {fileID: 21300000, guid: 13c5459a013c138448a4a3a9dfbb9653, type: 3}
    - {fileID: 21300000, guid: 59d98d70a7512e34da306b790a2b7784, type: 3}
    - {fileID: 21300000, guid: e0cb4f1d0fa9d2c43ba2d817c35c8db2, type: 3}
    - {fileID: 21300000, guid: f691d0256a0b9c74b9a34c416d39f64d, type: 3}
  m_AnimationClipSettings:
    serializedVersion: 2
    m_AdditiveReferencePoseClip: {fileID: 0}
    m_AdditiveReferencePoseTime: 0
    m_StartTime: 0
    m_StopTime: 0.6
    m_OrientationOffsetY: 0
    m_Level: 0
    m_CycleOffset: 0
    m_HasAdditiveReferencePose: 0
    m_LoopTime: 1
    m_LoopBlend: 0
    m_LoopBlendOrientation: 0
    m_LoopBlendPositionY: 0
    m_LoopBlendPositionXZ: 0
    m_KeepOriginalOrientation: 0
    m_KeepOriginalPositionY: 1
    m_KeepOriginalPositionXZ: 0
    m_HeightFromFeet: 0
    m_Mirror: 0
  m_EditorCurves: []
  m_EulerEditorCurves: []
  m_HasGenericRootTransform: 0
  m_HasMotionFloatCurves: 0
  m_Events: []
