%YAML 1.1
%TAG !u! tag:unity3d.com,2011:
--- !u!74 &7400000
AnimationClip:
  m_ObjectHideFlags: 0
  m_CorrespondingSourceObject: {fileID: 0}
  m_PrefabInstance: {fileID: 0}
  m_PrefabAsset: {fileID: 0}
  m_Name: Botiquin
  serializedVersion: 6
  m_Legacy: 0
  m_Compressed: 0
  m_UseHighQualityCurve: 1
  m_RotationCurves: []
  m_CompressedRotationCurves: []
  m_EulerCurves: []
  m_PositionCurves: []
  m_ScaleCurves: []
  m_FloatCurves: []
  m_PPtrCurves:
  - curve:
    - time: 0
      value: {fileID: 21300000, guid: e71e91822d245f144ba829c20a8e821e, type: 3}
    - time: 0.083333336
      value: {fileID: 21300000, guid: e4cd85b59f382054bbc75ab2f2f4d3ba, type: 3}
    - time: 0.16666667
      value: {fileID: 21300000, guid: e0dc3538747babe46a3a7295ba787a53, type: 3}
    - time: 0.25
      value: {fileID: 21300000, guid: 4bb1f5e588802cc42a2084ad9f464fba, type: 3}
    - time: 0.33333334
      value: {fileID: 21300000, guid: 57479f4626f46514fa1eec158f6cf1ea, type: 3}
    - time: 0.41666666
      value: {fileID: 21300000, guid: 31136c124f463944b888449fc8ba9595, type: 3}
    attribute: m_Sprite
    path: 
    classID: 212
    script: {fileID: 0}
  m_SampleRate: 12
  m_WrapMode: 0
  m_Bounds:
    m_Center: {x: 0, y: 0, z: 0}
    m_Extent: {x: 0, y: 0, z: 0}
  m_ClipBindingConstant:
    genericBindings:
    - serializedVersion: 2
      path: 0
      attribute: 0
      script: {fileID: 0}
      typeID: 212
      customType: 23
      isPPtrCurve: 1
    pptrCurveMapping:
    - {fileID: 21300000, guid: e71e91822d245f144ba829c20a8e821e, type: 3}
    - {fileID: 21300000, guid: e4cd85b59f382054bbc75ab2f2f4d3ba, type: 3}
    - {fileID: 21300000, guid: e0dc3538747babe46a3a7295ba787a53, type: 3}
    - {fileID: 21300000, guid: 4bb1f5e588802cc42a2084ad9f464fba, type: 3}
    - {fileID: 21300000, guid: 57479f4626f46514fa1eec158f6cf1ea, type: 3}
    - {fileID: 21300000, guid: 31136c124f463944b888449fc8ba9595, type: 3}
  m_AnimationClipSettings:
    serializedVersion: 2
    m_AdditiveReferencePoseClip: {fileID: 0}
    m_AdditiveReferencePoseTime: 0
    m_StartTime: 0
    m_StopTime: 0.5
    m_OrientationOffsetY: 0
    m_Level: 0
    m_CycleOffset: 0
    m_HasAdditiveReferencePose: 0
    m_LoopTime: 1
    m_LoopBlend: 0
    m_LoopBlendOrientation: 0
    m_LoopBlendPositionY: 0
    m_LoopBlendPositionXZ: 0
    m_KeepOriginalOrientation: 0
    m_KeepOriginalPositionY: 1
    m_KeepOriginalPositionXZ: 0
    m_HeightFromFeet: 0
    m_Mirror: 0
  m_EditorCurves: []
  m_EulerEditorCurves: []
  m_HasGenericRootTransform: 0
  m_HasMotionFloatCurves: 0
  m_Events: []
