%YAML 1.1
%TAG !u! tag:unity3d.com,2011:
--- !u!1 &2358803254131761345
GameObject:
  m_ObjectHideFlags: 0
  m_CorrespondingSourceObject: {fileID: 0}
  m_PrefabInstance: {fileID: 0}
  m_PrefabAsset: {fileID: 0}
  serializedVersion: 6
  m_Component:
  - component: {fileID: 2358803254131761406}
  m_Layer: 0
  m_Name: Satan
  m_TagString: Untagged
  m_Icon: {fileID: 0}
  m_NavMeshLayer: 0
  m_StaticEditorFlags: 0
  m_IsActive: 1
--- !u!4 &2358803254131761406
Transform:
  m_ObjectHideFlags: 0
  m_CorrespondingSourceObject: {fileID: 0}
  m_PrefabInstance: {fileID: 0}
  m_PrefabAsset: {fileID: 0}
  m_GameObject: {fileID: 2358803254131761345}
  m_LocalRotation: {x: 0, y: 0, z: 0, w: 1}
  m_LocalPosition: {x: 3.88, y: 0, z: 152.625}
  m_LocalScale: {x: 1, y: 1, z: 1}
  m_Children:
  - {fileID: 6518921395628256391}
  m_Father: {fileID: 0}
  m_RootOrder: 0
  m_LocalEulerAnglesHint: {x: 0, y: 0, z: 0}
--- !u!1001 &2358803254408054265
PrefabInstance:
  m_ObjectHideFlags: 0
  serializedVersion: 2
  m_Modification:
    m_TransformParent: {fileID: 2358803254131761406}
    m_Modifications:
    - target: {fileID: 8848442383618713981, guid: ccde34b19967c6b4ca09c63314be93ac,
        type: 3}
      propertyPath: m_Name
      value: Satan_001
      objectReference: {fileID: 0}
    - target: {fileID: 8848442383618713982, guid: ccde34b19967c6b4ca09c63314be93ac,
        type: 3}
      propertyPath: m_LocalPosition.x
      value: 0
      objectReference: {fileID: 0}
    - target: {fileID: 8848442383618713982, guid: ccde34b19967c6b4ca09c63314be93ac,
        type: 3}
      propertyPath: m_LocalPosition.y
      value: 0
      objectReference: {fileID: 0}
    - target: {fileID: 8848442383618713982, guid: ccde34b19967c6b4ca09c63314be93ac,
        type: 3}
      propertyPath: m_LocalPosition.z
      value: -152.625
      objectReference: {fileID: 0}
    - target: {fileID: 8848442383618713982, guid: ccde34b19967c6b4ca09c63314be93ac,
        type: 3}
      propertyPath: m_LocalRotation.x
      value: -0
      objectReference: {fileID: 0}
    - target: {fileID: 8848442383618713982, guid: ccde34b19967c6b4ca09c63314be93ac,
        type: 3}
      propertyPath: m_LocalRotation.y
      value: -0
      objectReference: {fileID: 0}
    - target: {fileID: 8848442383618713982, guid: ccde34b19967c6b4ca09c63314be93ac,
        type: 3}
      propertyPath: m_LocalRotation.z
      value: -0
      objectReference: {fileID: 0}
    - target: {fileID: 8848442383618713982, guid: ccde34b19967c6b4ca09c63314be93ac,
        type: 3}
      propertyPath: m_LocalRotation.w
      value: 1
      objectReference: {fileID: 0}
    - target: {fileID: 8848442383618713982, guid: ccde34b19967c6b4ca09c63314be93ac,
        type: 3}
      propertyPath: m_RootOrder
      value: 0
      objectReference: {fileID: 0}
    - target: {fileID: 8848442383618713982, guid: ccde34b19967c6b4ca09c63314be93ac,
        type: 3}
      propertyPath: m_LocalEulerAnglesHint.x
      value: 0
      objectReference: {fileID: 0}
    - target: {fileID: 8848442383618713982, guid: ccde34b19967c6b4ca09c63314be93ac,
        type: 3}
      propertyPath: m_LocalEulerAnglesHint.y
      value: 0
      objectReference: {fileID: 0}
    - target: {fileID: 8848442383618713982, guid: ccde34b19967c6b4ca09c63314be93ac,
        type: 3}
      propertyPath: m_LocalEulerAnglesHint.z
      value: 0
      objectReference: {fileID: 0}
    m_RemovedComponents: []
  m_SourcePrefab: {fileID: 100100000, guid: ccde34b19967c6b4ca09c63314be93ac, type: 3}
--- !u!4 &6518921395628256391 stripped
Transform:
  m_CorrespondingSourceObject: {fileID: 8848442383618713982, guid: ccde34b19967c6b4ca09c63314be93ac,
    type: 3}
  m_PrefabInstance: {fileID: 2358803254408054265}
  m_PrefabAsset: {fileID: 0}
